{"result":true,"data":[{"id":58792,"orig_title":"Fake Profile","imdb_id":"tt14494938","tmdbid":"227371","featured":true,"slider":false,"update":false,"last_update":"2025-01-13 08:20:02","type":"tv"},{"id":83376,"orig_title":"American Primeval","imdb_id":"tt24069848","tmdbid":"215866","featured":false,"slider":true,"update":false,"last_update":"2025-01-10 12:26:38","type":"tv"},{"id":72819,"orig_title":"Black Snow","imdb_id":"tt21263178","tmdbid":"210178","featured":false,"slider":false,"update":false,"last_update":"2025-01-09 13:09:02","type":"tv"},{"id":82923,"orig_title":"Earth Abides","imdb_id":"tt26443935","tmdbid":"250308","featured":false,"slider":true,"update":true,"last_update":"2025-01-09 13:02:39","type":"tv"},{"id":71996,"orig_title":"What If    ","imdb_id":"tt10168312","tmdbid":"91363","featured":false,"slider":true,"update":true,"last_update":"2025-01-09 13:00:28","type":"tv"},{"id":16270,"orig_title":"SAS  Rogue Heroes","imdb_id":"tt10405370","tmdbid":"93870","featured":false,"slider":false,"update":false,"last_update":"2025-01-02 21:05:01","type":"tv"},{"id":83334,"orig_title":"The Big Cigar","imdb_id":"tt19399602","tmdbid":"197124","featured":false,"slider":false,"update":false,"last_update":"2024-12-27 08:34:40","type":"tv"},{"id":77193,"orig_title":"Tehran","imdb_id":"tt10577736","tmdbid":"103913","featured":false,"slider":false,"update":false,"last_update":"2024-12-27 08:05:40","type":"tv"},{"id":83255,"orig_title":"Friday Night Lights","imdb_id":"tt0758745","tmdbid":"4278","featured":false,"slider":false,"update":false,"last_update":"2024-12-27 08:02:09","type":"tv"},{"id":77153,"orig_title":"Squid Game","imdb_id":"tt10919420","tmdbid":"93405","featured":true,"slider":true,"update":false,"last_update":"2024-12-26 14:14:22","type":"tv"},{"id":82836,"orig_title":"Dune  Prophecy","imdb_id":"tt10466872","tmdbid":"90228","featured":false,"slider":true,"update":true,"last_update":"2024-12-24 14:03:54","type":"tv"},{"id":83235,"orig_title":"La Palma","imdb_id":"tt30317229","tmdbid":"242977","featured":false,"slider":false,"update":false,"last_update":"2024-12-22 12:42:59","type":"tv"},{"id":75771,"orig_title":"American Horror Story","imdb_id":"tt1844624","tmdbid":"1413","featured":false,"slider":false,"update":false,"last_update":"2024-12-21 06:13:31","type":"tv"},{"id":83210,"orig_title":"Hero Inside","imdb_id":"tt24165980","tmdbid":"238841","featured":false,"slider":false,"update":false,"last_update":"2024-12-20 16:00:09","type":"tv"},{"id":82223,"orig_title":"3 Body Problem","imdb_id":"tt13016388","tmdbid":"108545","featured":false,"slider":false,"update":false,"last_update":"2024-12-20 03:14:42","type":"tv"},{"id":82997,"orig_title":"Secret Level","imdb_id":"tt33204697","tmdbid":"261579","featured":false,"slider":true,"update":true,"last_update":"2024-12-17 22:13:35","type":"tv"},{"id":83031,"orig_title":"Hogan s Heroes","imdb_id":"tt0058812","tmdbid":"4068","featured":false,"slider":false,"update":false,"last_update":"2024-12-17 07:22:41","type":"tv"},{"id":82772,"orig_title":"The Day of the Jackal","imdb_id":"tt24053860","tmdbid":"222766","featured":false,"slider":true,"update":true,"last_update":"2024-12-12 16:34:56","type":"tv"},{"id":83017,"orig_title":"Dream Productions","imdb_id":"tt33088401","tmdbid":"255868","featured":true,"slider":false,"update":false,"last_update":"2024-12-12 08:22:34","type":"tv"},{"id":83006,"orig_title":"One Hundred Years of Solitude","imdb_id":"tt9892936","tmdbid":"207333","featured":true,"slider":false,"update":false,"last_update":"2024-12-11 18:26:58","type":"tv"}],"current_page":3,"from":41,"to":60,"per_page":20,"last_page":187,"first_page_url":"https:\/\/moviesapi.club\/api\/discover\/tv?direction=desc&page=3&query=","next_page_url":"https:\/\/moviesapi.club\/api\/discover\/tv?direction=desc&page=3&query=&page=4","prev_page_url":"https:\/\/moviesapi.club\/api\/discover\/tv?direction=desc&page=3&query=&page=2","path":"\/api\/discover\/tv?direction=desc&page=3&query=","total":"3723","total_count":"3723"}