{"result":true,"data":[{"id":83505,"orig_title":"Patience","imdb_id":"tt31495377","tmdbid":"279603","featured":false,"slider":false,"update":false,"last_update":"2025-02-11 14:12:54","type":"tv"},{"id":83469,"orig_title":"Paradise","imdb_id":"tt27444205","tmdbid":"245927","featured":true,"slider":false,"update":true,"last_update":"2025-02-11 14:09:22","type":"tv"},{"id":56277,"orig_title":"Chicago P D ","imdb_id":"tt2805096","tmdbid":"58841","featured":false,"slider":false,"update":false,"last_update":"2025-02-08 09:11:56","type":"tv"},{"id":81394,"orig_title":"Harley Quinn","imdb_id":"tt7658402","tmdbid":"74440","featured":false,"slider":false,"update":false,"last_update":"2025-02-08 08:51:36","type":"tv"},{"id":82729,"orig_title":"Georgie   Mandy s First Marriage","imdb_id":"tt31589662","tmdbid":"243875","featured":false,"slider":false,"update":false,"last_update":"2025-02-07 07:03:13","type":"tv"},{"id":83473,"orig_title":"The Recruit","imdb_id":"tt16030542","tmdbid":"210916","featured":false,"slider":false,"update":false,"last_update":"2025-01-30 15:30:16","type":"tv"},{"id":83447,"orig_title":"The Lost Women Spies","imdb_id":"tt31308365","tmdbid":"281998","featured":false,"slider":false,"update":false,"last_update":"2025-01-28 14:51:36","type":"tv"},{"id":184,"orig_title":"Criminal Minds","imdb_id":"tt0452046","tmdbid":"4057","featured":false,"slider":false,"update":false,"last_update":"2025-01-28 14:47:25","type":"tv"},{"id":54200,"orig_title":"Silo","imdb_id":"tt14688458","tmdbid":"125988","featured":false,"slider":true,"update":true,"last_update":"2025-01-28 08:28:56","type":"tv"},{"id":82948,"orig_title":"Creature Commandos","imdb_id":"tt26545355","tmdbid":"219543","featured":false,"slider":false,"update":false,"last_update":"2025-01-26 23:48:05","type":"tv"},{"id":82897,"orig_title":"The Agency","imdb_id":"tt26656917","tmdbid":"219971","featured":false,"slider":true,"update":true,"last_update":"2025-01-26 18:06:06","type":"tv"},{"id":83446,"orig_title":"The Fall","imdb_id":"tt2294189","tmdbid":"49010","featured":false,"slider":false,"update":false,"last_update":"2025-01-23 18:33:35","type":"tv"},{"id":71254,"orig_title":"The Night Agent","imdb_id":"tt13918776","tmdbid":"129552","featured":true,"slider":false,"update":false,"last_update":"2025-01-23 14:35:20","type":"tv"},{"id":83434,"orig_title":"Hudson   Rex","imdb_id":"tt9111220","tmdbid":"87940","featured":false,"slider":false,"update":false,"last_update":"2025-01-23 07:38:01","type":"tv"},{"id":83427,"orig_title":"Subteran","imdb_id":"tt29632046","tmdbid":"277805","featured":false,"slider":false,"update":false,"last_update":"2025-01-20 09:49:35","type":"tv"},{"id":82208,"orig_title":"Allegiance","imdb_id":"tt29815504","tmdbid":"240936","featured":false,"slider":false,"update":false,"last_update":"2025-01-20 09:08:19","type":"tv"},{"id":82894,"orig_title":"Landman","imdb_id":"tt14186672","tmdbid":"157741","featured":false,"slider":false,"update":false,"last_update":"2025-01-18 16:58:17","type":"tv"},{"id":59164,"orig_title":"Outlander","imdb_id":"tt3006802","tmdbid":"56570","featured":false,"slider":false,"update":false,"last_update":"2025-01-18 15:19:33","type":"tv"},{"id":83353,"orig_title":"When the Stars Gossip","imdb_id":"tt26215550","tmdbid":"154822","featured":false,"slider":false,"update":false,"last_update":"2025-01-16 16:52:27","type":"tv"},{"id":82924,"orig_title":"Star Wars  Skeleton Crew","imdb_id":"tt20600980","tmdbid":"202879","featured":false,"slider":true,"update":true,"last_update":"2025-01-16 16:49:23","type":"tv"}],"current_page":2,"from":21,"to":40,"per_page":20,"last_page":187,"first_page_url":"https:\/\/moviesapi.club\/api\/discover\/tv?direction=desc&page=2&query=","next_page_url":"https:\/\/moviesapi.club\/api\/discover\/tv?direction=desc&page=2&query=&page=3","prev_page_url":"https:\/\/moviesapi.club\/api\/discover\/tv?direction=desc&page=2&query=&page=1","path":"\/api\/discover\/tv?direction=desc&page=2&query=","total":"3723","total_count":"3723"}